<?xml version="1.0" encoding="UTF-8" standalone="no"?>
<!-- Created with Inkscape (http://www.inkscape.org/) -->

<svg
   xmlns:dc="http://purl.org/dc/elements/1.1/"
   xmlns:cc="http://creativecommons.org/ns#"
   xmlns:rdf="http://www.w3.org/1999/02/22-rdf-syntax-ns#"
   xmlns:svg="http://www.w3.org/2000/svg"
   xmlns="http://www.w3.org/2000/svg"
   xmlns:xlink="http://www.w3.org/1999/xlink"
   xmlns:sodipodi="http://sodipodi.sourceforge.net/DTD/sodipodi-0.dtd"
   xmlns:inkscape="http://www.inkscape.org/namespaces/inkscape"
   width="48px"
   height="48px"
   id="svg6362"
   version="1.1"
   inkscape:version="0.48.4 r9939"
   sodipodi:docname="New document 19">
  <defs
     id="defs6364">
    <linearGradient
       inkscape:collect="always"
       xlink:href="#gradient6"
       id="linearGradient3907"
       gradientUnits="userSpaceOnUse"
       x1="12277"
       y1="21446"
       x2="13182"
       y2="23013" />
    <linearGradient
       id="gradient6"
       x1="12277"
       y1="21446"
       x2="13182"
       y2="23013"
       gradientUnits="userSpaceOnUse">
      <stop
         offset="0"
         style="stop-color:rgb(114,159,207)"
         id="stop356" />
      <stop
         offset="1"
         style="stop-color:rgb(32,74,135)"
         id="stop358" />
    </linearGradient>
    <linearGradient
       inkscape:collect="always"
       xlink:href="#gradient7"
       id="linearGradient3920"
       gradientUnits="userSpaceOnUse"
       x1="12440"
       y1="22931"
       x2="13306"
       y2="24430"
       gradientTransform="translate(-16.126985,16.126985)" />
    <linearGradient
       id="gradient7"
       x1="12440"
       y1="22931"
       x2="13306"
       y2="24430"
       gradientUnits="userSpaceOnUse">
      <stop
         offset="0"
         style="stop-color:rgb(114,159,207)"
         id="stop376" />
      <stop
         offset="1"
         style="stop-color:rgb(32,74,135)"
         id="stop378" />
    </linearGradient>
    <linearGradient
       inkscape:collect="always"
       xlink:href="#gradient6"
       id="linearGradient6950"
       gradientUnits="userSpaceOnUse"
       x1="12277"
       y1="21446"
       x2="13182"
       y2="23013" />
    <linearGradient
       inkscape:collect="always"
       xlink:href="#gradient7"
       id="linearGradient6952"
       gradientUnits="userSpaceOnUse"
       gradientTransform="translate(-16.126985,16.126985)"
       x1="12440"
       y1="22931"
       x2="13306"
       y2="24430" />
  </defs>
  <sodipodi:namedview
     id="base"
     pagecolor="#ffffff"
     bordercolor="#666666"
     borderopacity="1.0"
     inkscape:pageopacity="0.0"
     inkscape:pageshadow="2"
     inkscape:zoom="7"
     inkscape:cx="44.548576"
     inkscape:cy="24"
     inkscape:current-layer="g3922"
     showgrid="true"
     inkscape:grid-bbox="true"
     inkscape:document-units="px"
     inkscape:window-width="1301"
     inkscape:window-height="744"
     inkscape:window-x="65"
     inkscape:window-y="24"
     inkscape:window-maximized="1" />
  <metadata
     id="metadata6367">
    <rdf:RDF>
      <cc:Work
         rdf:about="">
        <dc:format>image/svg+xml</dc:format>
        <dc:type
           rdf:resource="http://purl.org/dc/dcmitype/StillImage" />
        <dc:title></dc:title>
      </cc:Work>
    </rdf:RDF>
  </metadata>
  <g
     id="layer1"
     inkscape:label="Layer 1"
     inkscape:groupmode="layer">
    <g
       transform="matrix(0.03543307,0,0,0.03543307,-208.15885,-383.44841)"
       id="g3922">
      <g
         transform="translate(-6131.9185,-11955.959)"
         id="g371">
        <defs
           id="defs373">
          <linearGradient
             id="linearGradient6353"
             x1="12440"
             y1="22931"
             x2="13306"
             y2="24430"
             gradientUnits="userSpaceOnUse">
            <stop
               offset="0"
               style="stop-color:rgb(114,159,207)"
               id="stop6355" />
            <stop
               offset="1"
               style="stop-color:rgb(32,74,135)"
               id="stop6357" />
          </linearGradient>
        </defs>
      </g>
      <g
         id="g6936"
         transform="matrix(0.55714464,0,0,0.55714464,2805.0161,5153.4903)">
        <g
           style="stroke-width:7.05555582;stroke-miterlimit:4;stroke-dasharray:none"
           id="g351"
           transform="translate(-6003.6365,-11237.575)">
          <defs
             id="defs353">
            <linearGradient
               gradientUnits="userSpaceOnUse"
               y2="23013"
               x2="13182"
               y1="21446"
               x1="12277"
               id="linearGradient6341">
              <stop
                 id="stop6343"
                 style="stop-color:rgb(114,159,207)"
                 offset="0" />
              <stop
                 id="stop6345"
                 style="stop-color:rgb(32,74,135)"
                 offset="1" />
            </linearGradient>
          </defs>
          <path
             inkscape:connector-curvature="0"
             id="path360"
             d="m 13809,22646 -2,-43 -5,-42 -7,-42 -10,-42 -13,-41 -16,-41 -18,-40 -20,-40 -23,-38 -26,-38 -28,-37 -30,-35 -33,-34 -34,-33 -37,-31 -38,-30 -41,-29 -42,-26 -44,-25 -46,-24 -46,-21 -49,-20 -49,-17 -51,-16 -51,-14 -52,-11 -53,-10 -54,-7 -54,-6 -54,-3 -54,-1 -54,1 -54,3 -54,6 -54,7 -53,10 -52,11 -51,14 -51,16 -49,17 -49,20 -46,21 -46,24 -44,25 -42,26 -41,29 -38,30 -37,31 -34,33 -33,34 -30,36 -28,36 -26,38 -23,38 -20,40 -18,40 -16,41 -13,41 -10,42 -7,42 -5,42 -2,43 506,4 1,-22 3,-23 3,-22 6,-22 7,-22 8,-22 9,-21 11,-21 12,-21 14,-20 15,-19 16,-19 17,-18 18,-17 20,-17 20,-16 22,-15 22,-14 24,-14 24,-12 25,-11 25,-11 26,-9 27,-8 28,-8 27,-6 28,-5 29,-4 28,-3 29,-1 29,-1 29,1 29,1 28,3 29,4 28,5 27,6 28,8 27,8 26,9 25,11 25,11 24,12 24,14 22,14 22,15 20,16 20,17 18,17 17,18 16,19 15,19 14,20 12,21 11,21 9,21 8,22 7,22 6,22 3,22 3,23 1,22 508,-4 z"
             style="fill:url(#linearGradient6950);stroke-width:7.05555582;stroke-miterlimit:4;stroke-dasharray:none" />
        </g>
        <path
           style="fill:none;stroke:#3465a4;stroke-width:12.66377735;stroke-miterlimit:4;stroke-dasharray:none"
           inkscape:connector-curvature="0"
           id="path362"
           d="m 7805.404,11408.465 -2,-43 -5,-42 -7,-42 -10,-42 -13,-41 -16,-41 -18,-40 -20,-40 -23,-38 -26,-38 -28,-37 -30,-35 -33,-34 -34,-33 -37,-31 -38,-30 -41,-29 -42,-26 -44,-25 -46,-24 -46,-21 -49,-20 -49,-17 -51,-16 -51,-14 -52,-11 -53,-10 -54,-7 -54,-6 -54,-3 -54,-1 -54,1 -54,3 -54,6 -54,7 -53,10 -52,11 -51,14 -51,16 -49,17 -49,20 -46,21 -46,24 -44,25 -42,26 -41,29 -38,30 -37,31 -34,33 -33,34 -30,36 -28,36 -26,38 -23,38 -20,40 -18,40 -16,41 -13,41 -10,42 -7,42 -5,42 -2,43 506,4 1,-22 3,-23 3,-22 6,-22 7,-22 8,-22 9,-21 11,-21 12,-21 14,-20 15,-19 16,-19 17,-18 18,-17 20,-17 20,-16 22,-15 22,-14 24,-14 24,-12 25,-11 25,-11 26,-9 27,-8 28,-8 27,-6 28,-5 29,-4 28,-3 29,-1 29,-1 29,1 29,1 28,3 29,4 28,5 27,6 28,8 27,8 26,9 25,11 25,11 24,12 24,14 22,14 22,15 20,16 20,17 18,17 17,18 16,19 15,19 14,20 12,21 11,21 9,21 8,22 7,22 6,22 3,22 3,23 1,22 508,-4 z" />
        <path
           style="fill:none;stroke:#3465a4;stroke-width:12.66377735;stroke-miterlimit:4;stroke-dasharray:none"
           inkscape:connector-curvature="0"
           id="path364"
           d="m 5645.404,10571.465 0,0 z" />
        <path
           style="fill:none;stroke:#3465a4;stroke-width:12.66377735;stroke-miterlimit:4;stroke-dasharray:none"
           inkscape:connector-curvature="0"
           id="path366"
           d="m 7805.404,12265.465 0,0 z" />
        <path
           inkscape:connector-curvature="0"
           id="path380"
           d="m 13792.873,24155.127 -1,-46 -4,-46 -6,-46 -8,-45 -10,-45 -13,-44 -15,-44 -18,-43 -19,-42 -22,-41 -24,-40 -25,-38 -28,-38 -30,-36 -31,-34 -33,-33 -35,-31 -36,-29 -38,-28 -39,-25 -40,-24 -42,-22 -42,-19 -44,-18 -44,-15 -45,-13 -46,-11 -46,-9 -47,-6 -47,-4 -47,-2 -47,1 -47,3 -47,5 -46,7 -46,10 -45,12 -45,14 -44,17 -43,19 -42,20 -41,23 -40,25 -38,26 -37,29 -36,30 -34,32 -32,34 -30,35 -29,37 -26,38 -25,39 -23,40 -20,42 -19,42 -16,44 -14,44 -11,44 -10,45 -7,46 -4,46 -3,46 936,22 936,0 z"
           style="fill:url(#linearGradient6952);stroke-width:7.05555582;stroke-miterlimit:4;stroke-dasharray:none"
           transform="translate(-6131.9186,-11955.959)" />
        <path
           style="fill:none;stroke:#3465a4;stroke-width:12.66377735;stroke-miterlimit:4;stroke-dasharray:none"
           inkscape:connector-curvature="0"
           id="path382"
           d="m 7661.404,12195.465 -1,-46 -4,-46 -6,-46 -8,-45 -10,-45 -13,-44 -15,-44 -18,-43 -19,-42 -22,-41 -24,-40 -25,-38 -28,-38 -30,-36 -31,-34 -33,-33 -35,-31 -36,-29 -38,-28 -39,-25 -40,-24 -42,-22 -42,-19 -44,-18 -44,-15 -45,-13 -46,-11 -46,-9 -47,-6 -47,-4 -47,-2 -47,1 -47,3 -47,5 -46,7 -46,10 -45,12 -45,14 -44,17 -43,19 -42,20 -41,23 -40,25 -38,26 -37,29 -36,30 -34,32 -32,34 -30,35 -29,37 -26,38 -25,39 -23,40 -20,42 -19,42 -16,44 -14,44 -11,44 -10,45 -7,46 -4,46 -3,46 936,22 936,0 z" />
        <path
           style="fill:none;stroke:#3465a4;stroke-width:12.66377735;stroke-miterlimit:4;stroke-dasharray:none"
           inkscape:connector-curvature="0"
           id="path386"
           d="m 7661.404,11277.465 0,0 z" />
      </g>
    </g>
  </g>
</svg>
